\relax 
\providecommand\hyper@newdestlabel[2]{}
\providecommand\HyperFirstAtBeginDocument{\AtBeginDocument}
\HyperFirstAtBeginDocument{\ifx\hyper@anchor\@undefined
\global\let\oldcontentsline\contentsline
\gdef\contentsline#1#2#3#4{\oldcontentsline{#1}{#2}{#3}}
\global\let\oldnewlabel\newlabel
\gdef\newlabel#1#2{\newlabelxx{#1}#2}
\gdef\newlabelxx#1#2#3#4#5#6{\oldnewlabel{#1}{{#2}{#3}}}
\AtEndDocument{\ifx\hyper@anchor\@undefined
\let\contentsline\oldcontentsline
\let\newlabel\oldnewlabel
\fi}
\fi}
\global\let\hyper@last\relax 
\gdef\HyperFirstAtBeginDocument#1{#1}
\providecommand\HyField@AuxAddToFields[1]{}
\providecommand\HyField@AuxAddToCoFields[2]{}
\catcode `:\active 
\catcode `;\active 
\catcode `!\active 
\catcode `?\active 
\@writefile{toc}{\beamer@endinputifotherversion {3.36pt}}
\@writefile{nav}{\beamer@endinputifotherversion {3.36pt}}
\select@language{french}
\@writefile{toc}{\select@language{french}}
\@writefile{lof}{\select@language{french}}
\@writefile{lot}{\select@language{french}}
\@writefile{nav}{\headcommand {\slideentry {0}{0}{1}{1/1}{}{0}}}
\@writefile{nav}{\headcommand {\beamer@framepages {1}{1}}}
\@writefile{nav}{\headcommand {\sectionentry {1}{Sommaire}{2}{Sommaire}{0}}}
\@writefile{nav}{\headcommand {\beamer@sectionpages {1}{1}}}
\@writefile{nav}{\headcommand {\beamer@subsectionpages {1}{1}}}
\@writefile{nav}{\headcommand {\slideentry {1}{0}{1}{2/2}{}{0}}}
\@writefile{nav}{\headcommand {\beamer@framepages {2}{2}}}
\@writefile{toc}{\beamer@sectionintoc {2}{Introduction au projet}{3}{0}{1}}
\@writefile{nav}{\headcommand {\sectionentry {2}{Introduction au projet}{3}{Introduction au projet}{0}}}
\@writefile{nav}{\headcommand {\beamer@sectionpages {2}{2}}}
\@writefile{nav}{\headcommand {\beamer@subsectionpages {2}{2}}}
\@writefile{nav}{\headcommand {\slideentry {2}{0}{1}{3/3}{}{0}}}
\@writefile{nav}{\headcommand {\beamer@framepages {3}{3}}}
\@writefile{nav}{\headcommand {\slideentry {2}{0}{2}{4/4}{}{0}}}
\@writefile{nav}{\headcommand {\beamer@framepages {4}{4}}}
\@writefile{toc}{\beamer@sectionintoc {3}{Ce qui a \IeC {\'e}t\IeC {\'e} r\IeC {\'e}alis\IeC {\'e}}{5}{0}{2}}
\@writefile{nav}{\headcommand {\sectionentry {3}{Ce qui a \IeC {\'e}t\IeC {\'e} r\IeC {\'e}alis\IeC {\'e}}{5}{Ce qui a \IeC {\'e}t\IeC {\'e} r\IeC {\'e}alis\IeC {\'e}}{0}}}
\@writefile{nav}{\headcommand {\beamer@sectionpages {3}{4}}}
\@writefile{nav}{\headcommand {\beamer@subsectionpages {3}{4}}}
\@writefile{nav}{\headcommand {\slideentry {3}{0}{1}{5/5}{}{0}}}
\@writefile{nav}{\headcommand {\beamer@framepages {5}{5}}}
\@writefile{nav}{\headcommand {\slideentry {3}{0}{2}{6/6}{}{0}}}
\@writefile{nav}{\headcommand {\beamer@framepages {6}{6}}}
\@writefile{toc}{\beamer@subsectionintoc {3}{1}{Base de donn\IeC {\'e}es}{7}{0}{2}}
\@writefile{nav}{\headcommand {\beamer@subsectionentry {0}{3}{1}{7}{Base de donn\IeC {\'e}es}}\headcommand {\beamer@subsectionpages {5}{6}}}
\@writefile{nav}{\headcommand {\slideentry {3}{1}{1}{7/7}{Base de donn\IeC {\'e}es}{0}}}
\@writefile{nav}{\headcommand {\beamer@framepages {7}{7}}}
\@writefile{nav}{\headcommand {\slideentry {3}{1}{2}{8/8}{Base de donn\IeC {\'e}es}{0}}}
\@writefile{nav}{\headcommand {\beamer@framepages {8}{8}}}
\@writefile{toc}{\beamer@subsectionintoc {3}{2}{Interface graphique}{9}{0}{2}}
\@writefile{nav}{\headcommand {\beamer@subsectionentry {0}{3}{2}{9}{Interface graphique}}\headcommand {\beamer@subsectionpages {7}{8}}}
\@writefile{nav}{\headcommand {\slideentry {3}{2}{1}{9/9}{Interface graphique}{0}}}
\@writefile{nav}{\headcommand {\beamer@framepages {9}{9}}}
\@writefile{nav}{\headcommand {\slideentry {3}{2}{2}{10/10}{Interface graphique}{0}}}
\@writefile{nav}{\headcommand {\beamer@framepages {10}{10}}}
\@writefile{nav}{\headcommand {\slideentry {3}{2}{3}{11/11}{Interface graphique}{0}}}
\@writefile{nav}{\headcommand {\beamer@framepages {11}{11}}}
\@writefile{nav}{\headcommand {\slideentry {3}{2}{4}{12/12}{Interface graphique}{0}}}
\@writefile{nav}{\headcommand {\beamer@framepages {12}{12}}}
\@writefile{nav}{\headcommand {\slideentry {3}{2}{5}{13/13}{Interface graphique}{0}}}
\@writefile{nav}{\headcommand {\beamer@framepages {13}{13}}}
\@writefile{toc}{\beamer@subsectionintoc {3}{3}{Parseur}{14}{0}{2}}
\@writefile{nav}{\headcommand {\beamer@subsectionentry {0}{3}{3}{14}{Parseur}}\headcommand {\beamer@subsectionpages {9}{13}}}
\@writefile{nav}{\headcommand {\slideentry {3}{3}{1}{14/14}{Parseur}{0}}}
\@writefile{nav}{\headcommand {\beamer@framepages {14}{14}}}
\@writefile{lol}{\contentsline {lstlisting}{hmat\textendash oss.xml}}
\@writefile{nav}{\headcommand {\slideentry {3}{3}{2}{15/15}{Parseur}{0}}}
\@writefile{nav}{\headcommand {\beamer@framepages {15}{15}}}
\@writefile{lol}{\contentsline {lstlisting}{slurm\textunderscore hmat\textendash oss\textunderscore dense\textunderscore 9894\textunderscore 1.o20161102\textunderscore 181107}}
\@writefile{lol}{\contentsline {lstlisting}{slurm\textunderscore hmat\textendash oss\textunderscore ternd\textunderscore 9894\textunderscore 1.o20161021\textunderscore 114917}}
\@writefile{nav}{\headcommand {\slideentry {3}{3}{3}{16/16}{Parseur}{0}}}
\@writefile{nav}{\headcommand {\beamer@framepages {16}{16}}}
\@writefile{toc}{\beamer@sectionintoc {4}{Architecture de l'application}{17}{0}{3}}
\@writefile{nav}{\headcommand {\sectionentry {4}{Architecture de l'application}{17}{Architecture de l'application}{0}}}
\@writefile{nav}{\headcommand {\beamer@sectionpages {5}{16}}}
\@writefile{nav}{\headcommand {\beamer@subsectionpages {14}{16}}}
\@writefile{nav}{\headcommand {\slideentry {4}{0}{1}{17/17}{}{0}}}
\@writefile{nav}{\headcommand {\beamer@framepages {17}{17}}}
\@writefile{toc}{\beamer@subsectionintoc {4}{1}{L'architecture globale}{18}{0}{3}}
\@writefile{nav}{\headcommand {\beamer@subsectionentry {0}{4}{1}{18}{L'architecture globale}}\headcommand {\beamer@subsectionpages {17}{17}}}
\@writefile{nav}{\headcommand {\slideentry {4}{1}{1}{18/18}{L'architecture globale}{0}}}
\@writefile{nav}{\headcommand {\beamer@framepages {18}{18}}}
\@writefile{toc}{\beamer@subsectionintoc {4}{2}{La base de donn\IeC {\'e}es}{19}{0}{3}}
\@writefile{nav}{\headcommand {\beamer@subsectionentry {0}{4}{2}{19}{La base de donn\IeC {\'e}es}}\headcommand {\beamer@subsectionpages {18}{18}}}
\@writefile{nav}{\headcommand {\slideentry {4}{2}{1}{19/19}{La base de donn\IeC {\'e}es}{0}}}
\@writefile{nav}{\headcommand {\beamer@framepages {19}{19}}}
\@writefile{toc}{\beamer@subsectionintoc {4}{3}{Les fonctionnalit\IeC {\'e}s}{20}{0}{3}}
\@writefile{nav}{\headcommand {\beamer@subsectionentry {0}{4}{3}{20}{Les fonctionnalit\IeC {\'e}s}}\headcommand {\beamer@subsectionpages {19}{19}}}
\@writefile{nav}{\headcommand {\slideentry {4}{3}{1}{20/20}{Les fonctionnalit\IeC {\'e}s}{0}}}
\@writefile{nav}{\headcommand {\beamer@framepages {20}{20}}}
\@writefile{toc}{\beamer@subsectionintoc {4}{4}{L'interface}{21}{0}{3}}
\@writefile{nav}{\headcommand {\beamer@subsectionentry {0}{4}{4}{21}{L'interface}}\headcommand {\beamer@subsectionpages {20}{20}}}
\@writefile{nav}{\headcommand {\slideentry {4}{4}{1}{21/21}{L'interface}{0}}}
\@writefile{nav}{\headcommand {\beamer@framepages {21}{21}}}
\@writefile{toc}{\beamer@sectionintoc {5}{Aspect technique}{22}{0}{4}}
\@writefile{nav}{\headcommand {\sectionentry {5}{Aspect technique}{22}{Aspect technique}{0}}}
\@writefile{nav}{\headcommand {\beamer@sectionpages {17}{21}}}
\@writefile{nav}{\headcommand {\beamer@subsectionpages {21}{21}}}
\@writefile{nav}{\headcommand {\slideentry {5}{0}{1}{22/22}{}{0}}}
\@writefile{nav}{\headcommand {\beamer@framepages {22}{22}}}
\@writefile{toc}{\beamer@subsectionintoc {5}{1}{Choix techniques et algorithmiques}{23}{0}{4}}
\@writefile{nav}{\headcommand {\beamer@subsectionentry {0}{5}{1}{23}{Choix techniques et algorithmiques}}\headcommand {\beamer@subsectionpages {22}{22}}}
\@writefile{nav}{\headcommand {\slideentry {5}{1}{1}{23/23}{Choix techniques et algorithmiques}{0}}}
\@writefile{nav}{\headcommand {\beamer@framepages {23}{23}}}
\@writefile{toc}{\beamer@subsectionintoc {5}{2}{R\IeC {\'e}sultats des tests}{24}{0}{4}}
\@writefile{nav}{\headcommand {\beamer@subsectionentry {0}{5}{2}{24}{R\IeC {\'e}sultats des tests}}\headcommand {\beamer@subsectionpages {23}{23}}}
\@writefile{nav}{\headcommand {\slideentry {5}{2}{1}{24/24}{R\IeC {\'e}sultats des tests}{0}}}
\@writefile{nav}{\headcommand {\beamer@framepages {24}{24}}}
\@writefile{toc}{\beamer@subsectionintoc {5}{3}{Le fonctionnement}{25}{0}{4}}
\@writefile{nav}{\headcommand {\beamer@subsectionentry {0}{5}{3}{25}{Le fonctionnement}}\headcommand {\beamer@subsectionpages {24}{24}}}
\@writefile{nav}{\headcommand {\slideentry {5}{3}{1}{25/25}{Le fonctionnement}{0}}}
\@writefile{nav}{\headcommand {\beamer@framepages {25}{25}}}
\@writefile{toc}{\beamer@subsectionintoc {5}{4}{Les bugs}{26}{0}{4}}
\@writefile{nav}{\headcommand {\beamer@subsectionentry {0}{5}{4}{26}{Les bugs}}\headcommand {\beamer@subsectionpages {25}{25}}}
\@writefile{nav}{\headcommand {\slideentry {5}{4}{1}{26/26}{Les bugs}{0}}}
\@writefile{nav}{\headcommand {\beamer@framepages {26}{26}}}
\@writefile{toc}{\beamer@subsectionintoc {5}{5}{Les critiques}{27}{0}{4}}
\@writefile{nav}{\headcommand {\beamer@subsectionentry {0}{5}{5}{27}{Les critiques}}\headcommand {\beamer@subsectionpages {26}{26}}}
\@writefile{nav}{\headcommand {\slideentry {5}{5}{1}{27/27}{Les critiques}{0}}}
\@writefile{nav}{\headcommand {\beamer@framepages {27}{27}}}
\@writefile{nav}{\headcommand {\beamer@partpages {1}{27}}}
\@writefile{nav}{\headcommand {\beamer@subsectionpages {27}{27}}}
\@writefile{nav}{\headcommand {\beamer@sectionpages {22}{27}}}
\@writefile{nav}{\headcommand {\beamer@documentpages {27}}}
\@writefile{nav}{\headcommand {\def \inserttotalframenumber {27}}}
